{
  "root": {
    "nodes": [
      {
        "id": "Opt",
        "name": "Optimizer",
        "type": "optimization"
      },
      {
        "id": "Dis1",
        "name": "MDAChain",
        "type": "mda"
      },
      {
        "id": "Dis2",
        "name": "MDAJacobi",
        "type": "mda"
      },
      {
        "id": "Dis3",
        "name": "SobieskiStructure",
        "type": "analysis"
      },
      {
        "id": "Dis4",
        "name": "SobieskiAerodynamics",
        "type": "analysis"
      },
      {
        "id": "Dis5",
        "name": "SobieskiPropulsion",
        "type": "analysis"
      },
      {
        "id": "Dis6",
        "name": "PropulsionScenario_scn-1-1",
        "type": "mdo",
        "xdsm": "scn-1-1"
      },
      {
        "id": "Dis7",
        "name": "AerodynamicsScenario_scn-1-2",
        "type": "mdo",
        "xdsm": "scn-1-2"
      },
      {
        "id": "Dis8",
        "name": "StructureScenario_scn-1-3",
        "type": "mdo",
        "xdsm": "scn-1-3"
      },
      {
        "id": "Dis9",
        "name": "MDAChain",
        "type": "mda"
      },
      {
        "id": "Dis10",
        "name": "MDAJacobi",
        "type": "mda"
      },
      {
        "id": "Dis14",
        "name": "SobieskiMission",
        "type": "analysis"
      }
    ],
    "edges": [
      {
        "from": "_U_",
        "to": "Opt",
        "name": "x_shared^(0)"
      },
      {
        "from": "Opt",
        "to": "_U_",
        "name": "-y_4^*, g_1_g_2_g_3^*"
      },
      {
        "from": "Opt",
        "to": "Dis1",
        "name": "x_shared"
      },
      {
        "from": "Dis1",
        "to": "Opt",
        "name": "g_1, g_2, g_3"
      },
      {
        "from": "Opt",
        "to": "Dis2",
        "name": "x_shared"
      },
      {
        "from": "Dis2",
        "to": "Opt",
        "name": "g_1, g_2, g_3"
      },
      {
        "from": "Opt",
        "to": "Dis3",
        "name": "x_shared"
      },
      {
        "from": "Dis3",
        "to": "Opt",
        "name": "g_1"
      },
      {
        "from": "Opt",
        "to": "Dis4",
        "name": "x_shared"
      },
      {
        "from": "Dis4",
        "to": "Opt",
        "name": "g_2"
      },
      {
        "from": "Opt",
        "to": "Dis5",
        "name": "x_shared"
      },
      {
        "from": "Dis5",
        "to": "Opt",
        "name": "g_3"
      },
      {
        "from": "Opt",
        "to": "Dis9",
        "name": "x_shared"
      },
      {
        "from": "Dis9",
        "to": "Opt",
        "name": "g_1, g_2, g_3, y_4"
      },
      {
        "from": "Opt",
        "to": "Dis10",
        "name": "x_shared"
      },
      {
        "from": "Dis10",
        "to": "Opt",
        "name": "g_1, g_2, g_3"
      },
      {
        "from": "Opt",
        "to": "Dis5",
        "name": "x_shared"
      },
      {
        "from": "Dis5",
        "to": "Opt",
        "name": "g_3"
      },
      {
        "from": "Opt",
        "to": "Dis4",
        "name": "x_shared"
      },
      {
        "from": "Dis4",
        "to": "Opt",
        "name": "g_2"
      },
      {
        "from": "Opt",
        "to": "Dis3",
        "name": "x_shared"
      },
      {
        "from": "Dis3",
        "to": "Opt",
        "name": "g_1"
      },
      {
        "from": "Opt",
        "to": "Dis14",
        "name": "x_shared"
      },
      {
        "from": "Dis14",
        "to": "Opt",
        "name": "y_4"
      },
      {
        "from": "Dis3",
        "to": "_U_",
        "name": "y_1^*, y_11^*, y_14^*, y_12^*"
      },
      {
        "from": "Dis3",
        "to": "Opt",
        "name": "g_1"
      },
      {
        "from": "Dis4",
        "to": "_U_",
        "name": "y_21^*, y_23^*, y_24^*, y_2^*"
      },
      {
        "from": "Dis4",
        "to": "Opt",
        "name": "g_2"
      },
      {
        "from": "Dis5",
        "to": "_U_",
        "name": "y_32^*, y_31^*, y_3^*, y_34^*"
      },
      {
        "from": "Dis5",
        "to": "Opt",
        "name": "g_3"
      },
      {
        "from": "Dis5",
        "to": "_U_",
        "name": "y_32^*, y_31^*, y_3^*, y_34^*"
      },
      {
        "from": "Dis5",
        "to": "Opt",
        "name": "g_3"
      },
      {
        "from": "Dis4",
        "to": "_U_",
        "name": "y_21^*, y_23^*, y_24^*, y_2^*"
      },
      {
        "from": "Dis4",
        "to": "Opt",
        "name": "g_2"
      },
      {
        "from": "Dis3",
        "to": "_U_",
        "name": "y_1^*, y_11^*, y_14^*, y_12^*"
      },
      {
        "from": "Dis3",
        "to": "Opt",
        "name": "g_1"
      },
      {
        "from": "Dis14",
        "to": "Opt",
        "name": "y_4"
      },
      {
        "from": "Dis6",
        "to": "Dis7",
        "name": "y_32"
      },
      {
        "from": "Dis6",
        "to": "Dis1",
        "name": "x_3, y_31, y_32"
      },
      {
        "from": "Dis6",
        "to": "Dis9",
        "name": "x_3, y_31, y_32"
      },
      {
        "from": "Dis6",
        "to": "Dis8",
        "name": "y_31"
      },
      {
        "from": "Dis7",
        "to": "Dis1",
        "name": "x_2, y_21, y_23"
      },
      {
        "from": "Dis7",
        "to": "Dis8",
        "name": "y_21"
      },
      {
        "from": "Dis7",
        "to": "Dis9",
        "name": "x_2, y_21, y_23"
      },
      {
        "from": "Dis7",
        "to": "Dis6",
        "name": "y_23"
      },
      {
        "from": "Dis1",
        "to": "Dis7",
        "name": "y_12, y_32"
      },
      {
        "from": "Dis1",
        "to": "Dis9",
        "name": "y_12, y_21, y_23, y_31, y_32"
      },
      {
        "from": "Dis1",
        "to": "Dis8",
        "name": "y_21, y_31"
      },
      {
        "from": "Dis1",
        "to": "Dis6",
        "name": "y_23"
      },
      {
        "from": "Dis8",
        "to": "Dis7",
        "name": "y_12"
      },
      {
        "from": "Dis8",
        "to": "Dis1",
        "name": "x_1, y_12"
      },
      {
        "from": "Dis8",
        "to": "Dis9",
        "name": "x_1, y_12"
      },
      {
        "from": "Dis9",
        "to": "Dis7",
        "name": "y_12, y_32"
      },
      {
        "from": "Dis9",
        "to": "Dis1",
        "name": "y_12, y_21, y_23, y_31, y_32"
      },
      {
        "from": "Dis9",
        "to": "Dis8",
        "name": "y_21, y_31"
      },
      {
        "from": "Dis9",
        "to": "Dis6",
        "name": "y_23"
      },
      {
        "from": "Dis2",
        "to": "Dis4",
        "name": "y_12, y_32"
      },
      {
        "from": "Dis2",
        "to": "Dis3",
        "name": "y_21, y_31"
      },
      {
        "from": "Dis2",
        "to": "Dis5",
        "name": "y_23"
      },
      {
        "from": "Dis3",
        "to": "Dis2",
        "name": "y_12"
      },
      {
        "from": "Dis3",
        "to": "Dis4",
        "name": "y_12"
      },
      {
        "from": "Dis4",
        "to": "Dis2",
        "name": "y_21, y_23"
      },
      {
        "from": "Dis4",
        "to": "Dis3",
        "name": "y_21"
      },
      {
        "from": "Dis4",
        "to": "Dis5",
        "name": "y_23"
      },
      {
        "from": "Dis5",
        "to": "Dis2",
        "name": "y_31, y_32"
      },
      {
        "from": "Dis5",
        "to": "Dis4",
        "name": "y_32"
      },
      {
        "from": "Dis5",
        "to": "Dis3",
        "name": "y_31"
      },
      {
        "from": "Dis10",
        "to": "Dis14",
        "name": "y_14, y_24, y_34"
      },
      {
        "from": "Dis10",
        "to": "Dis4",
        "name": "y_12, y_32"
      },
      {
        "from": "Dis10",
        "to": "Dis3",
        "name": "y_21, y_31"
      },
      {
        "from": "Dis10",
        "to": "Dis5",
        "name": "y_23"
      },
      {
        "from": "Dis5",
        "to": "Dis10",
        "name": "y_31, y_32"
      },
      {
        "from": "Dis5",
        "to": "Dis4",
        "name": "y_32"
      },
      {
        "from": "Dis5",
        "to": "Dis3",
        "name": "y_31"
      },
      {
        "from": "Dis4",
        "to": "Dis10",
        "name": "y_21, y_23"
      },
      {
        "from": "Dis4",
        "to": "Dis3",
        "name": "y_21"
      },
      {
        "from": "Dis4",
        "to": "Dis5",
        "name": "y_23"
      },
      {
        "from": "Dis3",
        "to": "Dis10",
        "name": "y_12"
      },
      {
        "from": "Dis3",
        "to": "Dis4",
        "name": "y_12"
      }
    ],
    "workflow": [
      "_U_",
      [
        "Opt",
        [
          "Dis1",
          "Dis2",
          [
            {
              "parallel": [
                "Dis3",
                "Dis4",
                "Dis5"
              ]
            }
          ],
          "Dis6",
          "Dis7",
          "Dis8",
          "Dis9",
          "Dis10",
          [
            {
              "parallel": [
                "Dis5",
                "Dis4",
                "Dis3"
              ]
            }
          ],
          "Dis14"
        ]
      ]
    ],
    "optpb": "Optimization problem:\n      Minimize: -y_4(x_shared)\nWith respect to: \n    x_shared\nSubject to constraints: \ng_1_g_2_g_3(x_shared) <= 0\nDesign Space: \n+----------+-------------+-------+-------------+-------+\n| name     | lower_bound | value | upper_bound | type  |\n+----------+-------------+-------+-------------+-------+\n| x_shared |     0.01    |  0.05 |     0.09    | float |\n| x_shared |    30000    | 45000 |    60000    | float |\n| x_shared |     1.4     |  1.6  |     1.8     | float |\n| x_shared |     2.5     |  5.5  |     8.5     | float |\n| x_shared |      40     |   55  |      70     | float |\n| x_shared |     500     |  1000 |     1500    | float |\n+----------+-------------+-------+-------------+-------+"
  },
  "PropulsionScenario_scn-1-1": {
    "nodes": [
      {
        "id": "Opt",
        "name": "Optimizer",
        "type": "optimization"
      },
      {
        "id": "Dis1",
        "name": "SobieskiPropulsion",
        "type": "analysis"
      }
    ],
    "edges": [
      {
        "from": "_U_",
        "to": "Opt",
        "name": "x_3^(0)"
      },
      {
        "from": "Opt",
        "to": "_U_",
        "name": "y_34^*, g_3^*"
      },
      {
        "from": "Opt",
        "to": "Dis1",
        "name": "x_3"
      },
      {
        "from": "Dis1",
        "to": "Opt",
        "name": "y_34, g_3"
      },
      {
        "from": "Dis1",
        "to": "_U_",
        "name": "y_32^*, y_31^*, y_3^*"
      },
      {
        "from": "Dis1",
        "to": "Opt",
        "name": "g_3, y_34"
      }
    ],
    "workflow": [
      "_U_",
      [
        "Opt",
        [
          "Dis1"
        ]
      ]
    ],
    "optpb": "Optimization problem:\n      Minimize: y_34(x_3)\nWith respect to: \n    x_3\nSubject to constraints: \ng_3(x_3) <= 0\nDesign Space: \n+------+-------------+-------+-------------+-------+\n| name | lower_bound | value | upper_bound | type  |\n+------+-------------+-------+-------------+-------+\n| x_3  |     0.1     |  0.5  |      1      | float |\n+------+-------------+-------+-------------+-------+"
  },
  "AerodynamicsScenario_scn-1-2": {
    "nodes": [
      {
        "id": "Opt",
        "name": "Optimizer",
        "type": "optimization"
      },
      {
        "id": "Dis1",
        "name": "SobieskiAerodynamics",
        "type": "analysis"
      }
    ],
    "edges": [
      {
        "from": "_U_",
        "to": "Opt",
        "name": "x_2^(0)"
      },
      {
        "from": "Opt",
        "to": "_U_",
        "name": "-y_24^*, g_2^*"
      },
      {
        "from": "Opt",
        "to": "Dis1",
        "name": "x_2"
      },
      {
        "from": "Dis1",
        "to": "Opt",
        "name": "g_2, y_24"
      },
      {
        "from": "Dis1",
        "to": "_U_",
        "name": "y_21^*, y_23^*, y_2^*"
      },
      {
        "from": "Dis1",
        "to": "Opt",
        "name": "y_24, g_2"
      }
    ],
    "workflow": [
      "_U_",
      [
        "Opt",
        [
          "Dis1"
        ]
      ]
    ],
    "optpb": "Optimization problem:\n      Minimize: -y_24(x_2)\nWith respect to: \n    x_2\nSubject to constraints: \ng_2(x_2) <= 0\nDesign Space: \n+------+-------------+-------+-------------+-------+\n| name | lower_bound | value | upper_bound | type  |\n+------+-------------+-------+-------------+-------+\n| x_2  |     0.75    |   1   |     1.25    | float |\n+------+-------------+-------+-------------+-------+"
  },
  "StructureScenario_scn-1-3": {
    "nodes": [
      {
        "id": "Opt",
        "name": "Optimizer",
        "type": "optimization"
      },
      {
        "id": "Dis1",
        "name": "SobieskiStructure",
        "type": "analysis"
      }
    ],
    "edges": [
      {
        "from": "_U_",
        "to": "Opt",
        "name": "x_1^(0)"
      },
      {
        "from": "Opt",
        "to": "_U_",
        "name": "-y_11^*, g_1^*"
      },
      {
        "from": "Opt",
        "to": "Dis1",
        "name": "x_1"
      },
      {
        "from": "Dis1",
        "to": "Opt",
        "name": "g_1, y_11"
      },
      {
        "from": "Dis1",
        "to": "_U_",
        "name": "y_1^*, y_14^*, y_12^*"
      },
      {
        "from": "Dis1",
        "to": "Opt",
        "name": "y_11, g_1"
      }
    ],
    "workflow": [
      "_U_",
      [
        "Opt",
        [
          "Dis1"
        ]
      ]
    ],
    "optpb": "Optimization problem:\n      Minimize: -y_11(x_1)\nWith respect to: \n    x_1\nSubject to constraints: \ng_1(x_1) <= 0\nDesign Space: \n+------+-------------+-------+-------------+-------+\n| name | lower_bound | value | upper_bound | type  |\n+------+-------------+-------+-------------+-------+\n| x_1  |     0.1     |  0.25 |     0.4     | float |\n| x_1  |     0.75    |   1   |     1.25    | float |\n+------+-------------+-------+-------------+-------+"
  }
}
