{
    "name": "SobieskiMission_output",
    "required": ["y_4"],
    "properties": {
        "y_4": {
            "items": {
                "type": "number"
            },
            "type": "array",
            "minItems": 1,
          	"maxItems": 1
        }
    },
    "$schema": "http://json-schema.org/draft-04/schema",
    "type": "object",
    "id": "#SobieskiMission_output"
}
