{
    "name": "SellarSystem_input",
    "required": ["x_local","x_shared","y_0","y_1"],
    "properties": {
    	"x_local": {
            "items": {
                "type": "number",
                "id": "0"
            },
            "type": "array",
            "id": "x_local"
        },
        "x_shared": {
            "items": {
                "type": "number",
                "id": "0"
            },
            "type": "array",
            "id": "x_shared"
        },
        "y_0": {
            "items": {
                "type": "number",
                "id": "0"
            },
            "type": "array",
            "id": "y_0"
        },
        "y_1": {
            "items": {
                "type": "number",
                "id": "0"
            },
            "type": "array",
            "id": "y_1"
        }
    },
    "$schema": "http://json-schema.org/draft-04/schema",
    "type": "object",
    "id": "#SellarSystem_input"
}
