{
    "name": "Sellar1_input",
    "required": ["x_shared","y_0","y_1"],
    "properties": {
        "x_shared": {
            "items": {
                "type": "number",
                "id": "0"
            },
            "type": "array",
            "id": "x_shared"
        },
        "y_0": {
            "items": {
                "type": "number",
                "id": "0"
            },
            "type": "array",
            "id": "y_0"
        },
        "y_1": {
            "items": {
                "type": "number",
                "id": "0"
            },
            "type": "array",
            "id": "y_1"
        }
    },
    "$schema": "http://json-schema.org/draft-04/schema",
    "type": "object",
    "id": "#Sellar2_input"
}
