{
    "name": "ParetoFront_options",
    "required": ["save"],
    "properties": {
        "save": {
            "type": "boolean"
        },
        "show":{
            "type": "boolean"
        },
        "figsize_x": {
            "type": "number",
            "minimum":4
        },
        "figsize_y": {
            "type": "number",
            "minimum":4
        },
        "objectives":{
        	"items": {
                "type": "string",
                "minItems": 1
            },
            "type": "array"
        },
		"objectives_labels":{
        	"items": {
                "type": "string",
                "minItems": 1
            },
            "type": "array"
        },
        "file_path": {
            "type": "string"
        },
        "extension": {
            "type": "string"
        }
    },
    "additionalProperties": false,
    "$schema": "http://json-schema.org/draft-04/schema",
    "type": "object"
}
